50
99
162
165
297
168
0
3
102
105
108
156
159
6
183
186
171
174
177
180
234
237
189
192
195
198
201
210
213
216
219
222
225
258
9
12
15
18
261
264
132
135
138
141
144
66
69
72
75
78
81
147
150
249
240
243
246
207
252
255
231
111
114
54
57
60
63
273
276
36
39
42
45
48
204
228
120
51
288
291
294
279
282
285
117
84
87
90
93
96
267
270
153
123
126
129
21
24
27
30
33